0.800000
0.801257
0.802513
0.803770
0.805026
0.806282
0.807538
0.808794
0.810049
0.811304
0.812558
0.813812
0.815065
0.816318
0.817570
0.818822
0.820072
0.821322
0.822571
0.823819
0.825067
0.826313
0.827558
0.828802
0.830045
0.831287
0.832527
0.833767
0.835005
0.836241
0.837476
0.838710
0.839942
0.841173
0.842401
0.843629
0.844854
0.846078
0.847300
0.848520
0.849738
0.850954
0.852168
0.853380
0.854590
0.855798
0.857004
0.858207
0.859408
0.860607
0.861803
0.862997
0.864189
0.865378
0.866564
0.867748
0.868929
0.870107
0.871282
0.872455
0.873625
0.874792
0.875956
0.877117
0.878275
0.879430
0.880581
0.881730
0.882875
0.884017
0.885156
0.886291
0.887423
0.888552
0.889677
0.890798
0.891916
0.893030
0.894141
0.895248
0.896351
0.897450
0.898545
0.899637
0.900725
0.901808
0.902888
0.903963
0.905035
0.906102
0.907165
0.908224
0.909279
0.910329
0.911375
0.912417
0.913454
0.914486
0.915515
0.916538
0.917557
0.918571
0.919581
0.920586
0.921586
0.922581
0.923572
0.924558
0.925538
0.926514
0.927485
0.928451
0.929411
0.930367
0.931317
0.932262
0.933202
0.934137
0.935067
0.935991
0.936909
0.937823
0.938731
0.939633
0.940530
0.941421
0.942307
0.943187
0.944062
0.944931
0.945794
0.946651
0.947503
0.948348
0.949188
0.950022
0.950850
0.951672
0.952489
0.953299
0.954103
0.954901
0.955692
0.956478
0.957258
0.958031
0.958798
0.959559
0.960313
0.961062
0.961803
0.962539
0.963268
0.963990
0.964707
0.965416
0.966119
0.966816
0.967506
0.968189
0.968866
0.969536
0.970199
0.970855
0.971505
0.972148
0.972785
0.973414
0.974037
0.974652
0.975261
0.975863
0.976458
0.977046
0.977627
0.978201
0.978768
0.979328
0.979881
0.980427
0.980965
0.981497
0.982021
0.982538
0.983048
0.983551
0.984046
0.984535
0.985015
0.985489
0.985955
0.986414
0.986866
0.987310
0.987747
0.988176
0.988598
0.989013
0.989420
0.989819
0.990211
0.990596
0.990973
0.991342
0.991704
0.992059
0.992406
0.992745
0.993076
0.993400
0.993717
0.994025
0.994326
0.994620
0.994905
0.995183
0.995454
0.995716
0.995971
0.996218
0.996457
0.996689
0.996913
0.997129
0.997337
0.997538
0.997730
0.997915
0.998092
0.998262
0.998423
0.998577
0.998722
0.998860
0.998990
0.999112
0.999227
0.999333
0.999432
0.999523
0.999605
0.999680
0.999747
0.999807
0.999858
0.999901
0.999937
0.999964
0.999984
0.999996
1.000000
0.999996
0.999984
0.999964
0.999937
0.999901
0.999858
0.999807
0.999747
0.999680
0.999605
0.999523
0.999432
0.999333
0.999227
0.999112
0.998990
0.998860
0.998722
0.998577
0.998423
0.998262
0.998092
0.997915
0.997730
0.997538
0.997337
0.997129
0.996913
0.996689
0.996457
0.996218
0.995971
0.995716
0.995454
0.995183
0.994905
0.994620
0.994326
0.994025
0.993717
0.993400
0.993076
0.992745
0.992406
0.992059
0.991704
0.991342
0.990973
0.990596
0.990211
0.989819
0.989420
0.989013
0.988598
0.988176
0.987747
0.987310
0.986866
0.986414
0.985955
0.985489
0.985015
0.984535
0.984046
0.983551
0.983048
0.982538
0.982021
0.981497
0.980965
0.980427
0.979881
0.979328
0.978768
0.978201
0.977627
0.977046
0.976458
0.975863
0.975261
0.974652
0.974037
0.973414
0.972785
0.972148
0.971505
0.970855
0.970199
0.969536
0.968866
0.968189
0.967506
0.966816
0.966119
0.965416
0.964707
0.963990
0.963268
0.962539
0.961803
0.961062
0.960313
0.959559
0.958798
0.958031
0.957258
0.956478
0.955692
0.954901
0.954103
0.953299
0.952489
0.951672
0.950850
0.950022
0.949188
0.948348
0.947503
0.946651
0.945794
0.944931
0.944062
0.943187
0.942307
0.941421
0.940530
0.939633
0.938731
0.937823
0.936909
0.935991
0.935067
0.934137
0.933202
0.932262
0.931317
0.930367
0.929411
0.928451
0.927485
0.926514
0.925538
0.924558
0.923572
0.922581
0.921586
0.920586
0.919581
0.918571
0.917557
0.916538
0.915515
0.914486
0.913454
0.912417
0.911375
0.910329
0.909279
0.908224
0.907165
0.906102
0.905035
0.903963
0.902888
0.901808
0.900725
0.899637
0.898545
0.897450
0.896351
0.895248
0.894141
0.893030
0.891916
0.890798
0.889677
0.888552
0.887423
0.886291
0.885156
0.884017
0.882875
0.881730
0.880581
0.879430
0.878275
0.877117
0.875956
0.874792
0.873625
0.872455
0.871282
0.870107
0.868929
0.867748
0.866564
0.865378
0.864189
0.862997
0.861803
0.860607
0.859408
0.858207
0.857004
0.855798
0.854590
0.853380
0.852168
0.850954
0.849738
0.848520
0.847300
0.846078
0.844854
0.843629
0.842401
0.841173
0.839942
0.838710
0.837476
0.836241
0.835005
0.833767
0.832527
0.831287
0.830045
0.828802
0.827558
0.826313
0.825067
0.823819
0.822571
0.821322
0.820072
0.818822
0.817570
0.816318
0.815065
0.813812
0.812558
0.811304
0.810049
0.808794
0.807538
0.806282
0.805026
0.803770
0.802513
0.801257
0.800000
0.798743
0.797487
0.796230
0.794974
0.793718
0.792462
0.791206
0.789951
0.788696
0.787442
0.786188
0.784935
0.783682
0.782430
0.781178
0.779928
0.778678
0.777429
0.776181
0.774933
0.773687
0.772442
0.771198
0.769955
0.768713
0.767473
0.766233
0.764995
0.763759
0.762524
0.761290
0.760058
0.758827
0.757599
0.756371
0.755146
0.753922
0.752700
0.751480
0.750262
0.749046
0.747832
0.746620
0.745410
0.744202
0.742996
0.741793
0.740592
0.739393
0.738197
0.737003
0.735811
0.734622
0.733436
0.732252
0.731071
0.729893
0.728718
0.727545
0.726375
0.725208
0.724044
0.722883
0.721725
0.720570
0.719419
0.718270
0.717125
0.715983
0.714844
0.713709
0.712577
0.711448
0.710323
0.709202
0.708084
0.706970
0.705859
0.704752
0.703649
0.702550
0.701455
0.700363
0.699275
0.698192
0.697112
0.696037
0.694965
0.693898
0.692835
0.691776
0.690721
0.689671
0.688625
0.687583
0.686546
0.685514
0.684485
0.683462
0.682443
0.681429
0.680419
0.679414
0.678414
0.677419
0.676428
0.675442
0.674462
0.673486
0.672515
0.671549
0.670589
0.669633
0.668683
0.667738
0.666798
0.665863
0.664933
0.664009
0.663091
0.662177
0.661269
0.660367
0.659470
0.658579
0.657693
0.656813
0.655938
0.655069
0.654206
0.653349
0.652497
0.651652
0.650812
0.649978
0.649150
0.648328
0.647511
0.646701
0.645897
0.645099
0.644308
0.643522
0.642742
0.641969
0.641202
0.640441
0.639687
0.638938
0.638197
0.637461
0.636732
0.636010
0.635293
0.634584
0.633881
0.633184
0.632494
0.631811
0.631134
0.630464
0.629801
0.629145
0.628495
0.627852
0.627215
0.626586
0.625963
0.625348
0.624739
0.624137
0.623542
0.622954
0.622373
0.621799
0.621232
0.620672
0.620119
0.619573
0.619035
0.618503
0.617979
0.617462
0.616952
0.616449
0.615954
0.615465
0.614985
0.614511
0.614045
0.613586
0.613134
0.612690
0.612253
0.611824
0.611402
0.610987
0.610580
0.610181
0.609789
0.609404
0.609027
0.608658
0.608296
0.607941
0.607594
0.607255
0.606924
0.606600
0.606283
0.605975
0.605674
0.605380
0.605095
0.604817
0.604546
0.604284
0.604029
0.603782
0.603543
0.603311
0.603087
0.602871
0.602663
0.602462
0.602270
0.602085
0.601908
0.601738
0.601577
0.601423
0.601278
0.601140
0.601010
0.600888
0.600773
0.600667
0.600568
0.600477
0.600395
0.600320
0.600253
0.600193
0.600142
0.600099
0.600063
0.600036
0.600016
0.600004
0.600000
0.600004
0.600016
0.600036
0.600063
0.600099
0.600142
0.600193
0.600253
0.600320
0.600395
0.600477
0.600568
0.600667
0.600773
0.600888
0.601010
0.601140
0.601278
0.601423
0.601577
0.601738
0.601908
0.602085
0.602270
0.602462
0.602663
0.602871
0.603087
0.603311
0.603543
0.603782
0.604029
0.604284
0.604546
0.604817
0.605095
0.605380
0.605674
0.605975
0.606283
0.606600
0.606924
0.607255
0.607594
0.607941
0.608296
0.608658
0.609027
0.609404
0.609789
0.610181
0.610580
0.610987
0.611402
0.611824
0.612253
0.612690
0.613134
0.613586
0.614045
0.614511
0.614985
0.615465
0.615954
0.616449
0.616952
0.617462
0.617979
0.618503
0.619035
0.619573
0.620119
0.620672
0.621232
0.621799
0.622373
0.622954
0.623542
0.624137
0.624739
0.625348
0.625963
0.626586
0.627215
0.627852
0.628495
0.629145
0.629801
0.630464
0.631134
0.631811
0.632494
0.633184
0.633881
0.634584
0.635293
0.636010
0.636732
0.637461
0.638197
0.638938
0.639687
0.640441
0.641202
0.641969
0.642742
0.643522
0.644308
0.645099
0.645897
0.646701
0.647511
0.648328
0.649150
0.649978
0.650812
0.651652
0.652497
0.653349
0.654206
0.655069
0.655938
0.656813
0.657693
0.658579
0.659470
0.660367
0.661269
0.662177
0.663091
0.664009
0.664933
0.665863
0.666798
0.667738
0.668683
0.669633
0.670589
0.671549
0.672515
0.673486
0.674462
0.675442
0.676428
0.677419
0.678414
0.679414
0.680419
0.681429
0.682443
0.683462
0.684485
0.685514
0.686546
0.687583
0.688625
0.689671
0.690721
0.691776
0.692835
0.693898
0.694965
0.696037
0.697112
0.698192
0.699275
0.700363
0.701455
0.702550
0.703649
0.704752
0.705859
0.706970
0.708084
0.709202
0.710323
0.711448
0.712577
0.713709
0.714844
0.715983
0.717125
0.718270
0.719419
0.720570
0.721725
0.722883
0.724044
0.725208
0.726375
0.727545
0.728718
0.729893
0.731071
0.732252
0.733436
0.734622
0.735811
0.737003
0.738197
0.739393
0.740592
0.741793
0.742996
0.744202
0.745410
0.746620
0.747832
0.749046
0.750262
0.751480
0.752700
0.753922
0.755146
0.756371
0.757599
0.758827
0.760058
0.761290
0.762524
0.763759
0.764995
0.766233
0.767473
0.768713
0.769955
0.771198
0.772442
0.773687
0.774933
0.776181
0.777429
0.778678
0.779928
0.781178
0.782430
0.783682
0.784935
0.786188
0.787442
0.788696
0.789951
0.791206
0.792462
0.793718
0.794974
0.796230
0.797487
0.798743
