0.000000
0.031411
0.062791
0.094108
0.125333
0.156434
0.187381
0.218143
0.248690
0.278991
0.309017
0.338738
0.368125
0.397148
0.425779
0.453990
0.481754
0.509041
0.535827
0.562083
0.587785
0.612907
0.637424
0.661312
0.684547
0.707107
0.728969
0.750111
0.770513
0.790155
0.809017
0.827081
0.844328
0.860742
0.876307
0.891007
0.904827
0.917755
0.929776
0.940881
0.951057
0.960294
0.968583
0.975917
0.982287
0.987688
0.992115
0.995562
0.998027
0.999507
1.000000
0.999507
0.998027
0.995562
0.992115
0.987688
0.982287
0.975917
0.968583
0.960294
0.951057
0.940881
0.929776
0.917755
0.904827
0.891007
0.876307
0.860742
0.844328
0.827081
0.809017
0.790155
0.770513
0.750111
0.728969
0.707107
0.684547
0.661312
0.637424
0.612907
0.587785
0.562083
0.535827
0.509041
0.481754
0.453990
0.425779
0.397148
0.368125
0.338738
0.309017
0.278991
0.248690
0.218143
0.187381
0.156434
0.125333
0.094108
0.062791
0.031411
0.000000
-0.031411
-0.062791
-0.094108
-0.125333
-0.156434
-0.187381
-0.218143
-0.248690
-0.278991
-0.309017
-0.338738
-0.368125
-0.397148
-0.425779
-0.453990
-0.481754
-0.509041
-0.535827
-0.562083
-0.587785
-0.612907
-0.637424
-0.661312
-0.684547
-0.707107
-0.728969
-0.750111
-0.770513
-0.790155
-0.809017
-0.827081
-0.844328
-0.860742
-0.876307
-0.891007
-0.904827
-0.917755
-0.929776
-0.940881
-0.951057
-0.960294
-0.968583
-0.975917
-0.982287
-0.987688
-0.992115
-0.995562
-0.998027
-0.999507
-1.000000
-0.999507
-0.998027
-0.995562
-0.992115
-0.987688
-0.982287
-0.975917
-0.968583
-0.960294
-0.951057
-0.940881
-0.929776
-0.917755
-0.904827
-0.891007
-0.876307
-0.860742
-0.844328
-0.827081
-0.809017
-0.790155
-0.770513
-0.750111
-0.728969
-0.707107
-0.684547
-0.661312
-0.637424
-0.612907
-0.587785
-0.562083
-0.535827
-0.509041
-0.481754
-0.453990
-0.425779
-0.397148
-0.368125
-0.338738
-0.309017
-0.278991
-0.248690
-0.218143
-0.187381
-0.156434
-0.125333
-0.094108
-0.062791
-0.031411
0.000000
0.031411
0.062791
0.094108
0.125333
0.156434
0.187381
0.218143
0.248690
0.278991
0.309017
0.338738
0.368125
0.397148
0.425779
0.453990
0.481754
0.509041
0.535827
0.562083
0.587785
0.612907
0.637424
0.661312
0.684547
0.707107
0.728969
0.750111
0.770513
0.790155
0.809017
0.827081
0.844328
0.860742
0.876307
0.891007
0.904827
0.917755
0.929776
0.940881
0.951057
0.960294
0.968583
0.975917
0.982287
0.987688
0.992115
0.995562
0.998027
0.999507
1.000000
0.999507
0.998027
0.995562
0.992115
0.987688
0.982287
0.975917
0.968583
0.960294
0.951057
0.940881
0.929776
0.917755
0.904827
0.891007
0.876307
0.860742
0.844328
0.827081
0.809017
0.790155
0.770513
0.750111
0.728969
0.707107
0.684547
0.661312
0.637424
0.612907
0.587785
0.562083
0.535827
0.509041
0.481754
0.453990
0.425779
0.397148
0.368125
0.338738
0.309017
0.278991
0.248690
0.218143
0.187381
0.156434
0.125333
0.094108
0.062791
0.031411
0.000000
-0.031411
-0.062791
-0.094108
-0.125333
-0.156434
-0.187381
-0.218143
-0.248690
-0.278991
-0.309017
-0.338738
-0.368125
-0.397148
-0.425779
-0.453990
-0.481754
-0.509041
-0.535827
-0.562083
-0.587785
-0.612907
-0.637424
-0.661312
-0.684547
-0.707107
-0.728969
-0.750111
-0.770513
-0.790155
-0.809017
-0.827081
-0.844328
-0.860742
-0.876307
-0.891007
-0.904827
-0.917755
-0.929776
-0.940881
-0.951057
-0.960294
-0.968583
-0.975917
-0.982287
-0.987688
-0.992115
-0.995562
-0.998027
-0.999507
-1.000000
-0.999507
-0.998027
-0.995562
-0.992115
-0.987688
-0.982287
-0.975917
-0.968583
-0.960294
-0.951057
-0.940881
-0.929776
-0.917755
-0.904827
-0.891007
-0.876307
-0.860742
-0.844328
-0.827081
-0.809017
-0.790155
-0.770513
-0.750111
-0.728969
-0.707107
-0.684547
-0.661312
-0.637424
-0.612907
-0.587785
-0.562083
-0.535827
-0.509041
-0.481754
-0.453990
-0.425779
-0.397148
-0.368125
-0.338738
-0.309017
-0.278991
-0.248690
-0.218143
-0.187381
-0.156434
-0.125333
-0.094108
-0.062791
-0.031411
0.000000
0.031411
0.062791
0.094108
0.125333
0.156434
0.187381
0.218143
0.248690
0.278991
0.309017
0.338738
0.368125
0.397148
0.425779
0.453990
0.481754
0.509041
0.535827
0.562083
0.587785
0.612907
0.637424
0.661312
0.684547
0.707107
0.728969
0.750111
0.770513
0.790155
0.809017
0.827081
0.844328
0.860742
0.876307
0.891007
0.904827
0.917755
0.929776
0.940881
0.951057
0.960294
0.968583
0.975917
0.982287
0.987688
0.992115
0.995562
0.998027
0.999507
1.000000
0.999507
0.998027
0.995562
0.992115
0.987688
0.982287
0.975917
0.968583
0.960294
0.951057
0.940881
0.929776
0.917755
0.904827
0.891007
0.876307
0.860742
0.844328
0.827081
0.809017
0.790155
0.770513
0.750111
0.728969
0.707107
0.684547
0.661312
0.637424
0.612907
0.587785
0.562083
0.535827
0.509041
0.481754
0.453990
0.425779
0.397148
0.368125
0.338738
0.309017
0.278991
0.248690
0.218143
0.187381
0.156434
0.125333
0.094108
0.062791
0.031411
0.000000
-0.031411
-0.062791
-0.094108
-0.125333
-0.156434
-0.187381
-0.218143
-0.248690
-0.278991
-0.309017
-0.338738
-0.368125
-0.397148
-0.425779
-0.453990
-0.481754
-0.509041
-0.535827
-0.562083
-0.587785
-0.612907
-0.637424
-0.661312
-0.684547
-0.707107
-0.728969
-0.750111
-0.770513
-0.790155
-0.809017
-0.827081
-0.844328
-0.860742
-0.876307
-0.891007
-0.904827
-0.917755
-0.929776
-0.940881
-0.951057
-0.960294
-0.968583
-0.975917
-0.982287
-0.987688
-0.992115
-0.995562
-0.998027
-0.999507
-1.000000
-0.999507
-0.998027
-0.995562
-0.992115
-0.987688
-0.982287
-0.975917
-0.968583
-0.960294
-0.951057
-0.940881
-0.929776
-0.917755
-0.904827
-0.891007
-0.876307
-0.860742
-0.844328
-0.827081
-0.809017
-0.790155
-0.770513
-0.750111
-0.728969
-0.707107
-0.684547
-0.661312
-0.637424
-0.612907
-0.587785
-0.562083
-0.535827
-0.509041
-0.481754
-0.453990
-0.425779
-0.397148
-0.368125
-0.338738
-0.309017
-0.278991
-0.248690
-0.218143
-0.187381
-0.156434
-0.125333
-0.094108
-0.062791
-0.031411
0.000000
0.031411
0.062791
0.094108
0.125333
0.156434
0.187381
0.218143
0.248690
0.278991
0.309017
0.338738
0.368125
0.397148
0.425779
0.453990
0.481754
0.509041
0.535827
0.562083
0.587785
0.612907
0.637424
0.661312
0.684547
0.707107
0.728969
0.750111
0.770513
0.790155
0.809017
0.827081
0.844328
0.860742
0.876307
0.891007
0.904827
0.917755
0.929776
0.940881
0.951057
0.960294
0.968583
0.975917
0.982287
0.987688
0.992115
0.995562
0.998027
0.999507
1.000000
0.999507
0.998027
0.995562
0.992115
0.987688
0.982287
0.975917
0.968583
0.960294
0.951057
0.940881
0.929776
0.917755
0.904827
0.891007
0.876307
0.860742
0.844328
0.827081
0.809017
0.790155
0.770513
0.750111
0.728969
0.707107
0.684547
0.661312
0.637424
0.612907
0.587785
0.562083
0.535827
0.509041
0.481754
0.453990
0.425779
0.397148
0.368125
0.338738
0.309017
0.278991
0.248690
0.218143
0.187381
0.156434
0.125333
0.094108
0.062791
0.031411
0.000000
-0.031411
-0.062791
-0.094108
-0.125333
-0.156434
-0.187381
-0.218143
-0.248690
-0.278991
-0.309017
-0.338738
-0.368125
-0.397148
-0.425779
-0.453990
-0.481754
-0.509041
-0.535827
-0.562083
-0.587785
-0.612907
-0.637424
-0.661312
-0.684547
-0.707107
-0.728969
-0.750111
-0.770513
-0.790155
-0.809017
-0.827081
-0.844328
-0.860742
-0.876307
-0.891007
-0.904827
-0.917755
-0.929776
-0.940881
-0.951057
-0.960294
-0.968583
-0.975917
-0.982287
-0.987688
-0.992115
-0.995562
-0.998027
-0.999507
-1.000000
-0.999507
-0.998027
-0.995562
-0.992115
-0.987688
-0.982287
-0.975917
-0.968583
-0.960294
-0.951057
-0.940881
-0.929776
-0.917755
-0.904827
-0.891007
-0.876307
-0.860742
-0.844328
-0.827081
-0.809017
-0.790155
-0.770513
-0.750111
-0.728969
-0.707107
-0.684547
-0.661312
-0.637424
-0.612907
-0.587785
-0.562083
-0.535827
-0.509041
-0.481754
-0.453990
-0.425779
-0.397148
-0.368125
-0.338738
-0.309017
-0.278991
-0.248690
-0.218143
-0.187381
-0.156434
-0.125333
-0.094108
-0.062791
-0.031411
0.000000
0.031411
0.062791
0.094108
0.125333
0.156434
0.187381
0.218143
0.248690
0.278991
0.309017
0.338738
0.368125
0.397148
0.425779
0.453990
0.481754
0.509041
0.535827
0.562083
0.587785
0.612907
0.637424
0.661312
0.684547
0.707107
0.728969
0.750111
0.770513
0.790155
0.809017
0.827081
0.844328
0.860742
0.876307
0.891007
0.904827
0.917755
0.929776
0.940881
0.951057
0.960294
0.968583
0.975917
0.982287
0.987688
0.992115
0.995562
0.998027
0.999507
1.000000
0.999507
0.998027
0.995562
0.992115
0.987688
0.982287
0.975917
0.968583
0.960294
0.951057
0.940881
0.929776
0.917755
0.904827
0.891007
0.876307
0.860742
0.844328
0.827081
0.809017
0.790155
0.770513
0.750111
0.728969
0.707107
0.684547
0.661312
0.637424
0.612907
0.587785
0.562083
0.535827
0.509041
0.481754
0.453990
0.425779
0.397148
0.368125
0.338738
0.309017
0.278991
0.248690
0.218143
0.187381
0.156434
0.125333
0.094108
0.062791
0.031411
0.000000
-0.031411
-0.062791
-0.094108
-0.125333
-0.156434
-0.187381
-0.218143
-0.248690
-0.278991
-0.309017
-0.338738
-0.368125
-0.397148
-0.425779
-0.453990
-0.481754
-0.509041
-0.535827
-0.562083
-0.587785
-0.612907
-0.637424
-0.661312
-0.684547
-0.707107
-0.728969
-0.750111
-0.770513
-0.790155
-0.809017
-0.827081
-0.844328
-0.860742
-0.876307
-0.891007
-0.904827
-0.917755
-0.929776
-0.940881
-0.951057
-0.960294
-0.968583
-0.975917
-0.982287
-0.987688
-0.992115
-0.995562
-0.998027
-0.999507
-1.000000
-0.999507
-0.998027
-0.995562
-0.992115
-0.987688
-0.982287
-0.975917
-0.968583
-0.960294
-0.951057
-0.940881
-0.929776
-0.917755
-0.904827
-0.891007
-0.876307
-0.860742
-0.844328
-0.827081
-0.809017
-0.790155
-0.770513
-0.750111
-0.728969
-0.707107
-0.684547
-0.661312
-0.637424
-0.612907
-0.587785
-0.562083
-0.535827
-0.509041
-0.481754
-0.453990
-0.425779
-0.397148
-0.368125
-0.338738
-0.309017
-0.278991
-0.248690
-0.218143
-0.187381
-0.156434
-0.125333
-0.094108
-0.062791
-0.031411
0.000000
0.031411
0.062791
0.094108
0.125333
0.156434
0.187381
0.218143
0.248690
0.278991
0.309017
0.338738
0.368125
0.397148
0.425779
0.453990
0.481754
0.509041
0.535827
0.562083
0.587785
0.612907
0.637424
0.661312
0.684547
0.707107
0.728969
0.750111
0.770513
0.790155
0.809017
0.827081
0.844328
0.860742
0.876307
0.891007
0.904827
0.917755
0.929776
0.940881
0.951057
0.960294
0.968583
0.975917
0.982287
0.987688
0.992115
0.995562
0.998027
0.999507
1.000000
0.999507
0.998027
0.995562
0.992115
0.987688
0.982287
0.975917
0.968583
0.960294
0.951057
0.940881
0.929776
0.917755
0.904827
0.891007
0.876307
0.860742
0.844328
0.827081
0.809017
0.790155
0.770513
0.750111
0.728969
0.707107
0.684547
0.661312
0.637424
0.612907
0.587785
0.562083
0.535827
0.509041
0.481754
0.453990
0.425779
0.397148
0.368125
0.338738
0.309017
0.278991
0.248690
0.218143
0.187381
0.156434
0.125333
0.094108
0.062791
0.031411
0.000000
-0.031411
-0.062791
-0.094108
-0.125333
-0.156434
-0.187381
-0.218143
-0.248690
-0.278991
-0.309017
-0.338738
-0.368125
-0.397148
-0.425779
-0.453990
-0.481754
-0.509041
-0.535827
-0.562083
-0.587785
-0.612907
-0.637424
-0.661312
-0.684547
-0.707107
-0.728969
-0.750111
-0.770513
-0.790155
-0.809017
-0.827081
-0.844328
-0.860742
-0.876307
-0.891007
-0.904827
-0.917755
-0.929776
-0.940881
-0.951057
-0.960294
-0.968583
-0.975917
-0.982287
-0.987688
-0.992115
-0.995562
-0.998027
-0.999507
-1.000000
-0.999507
-0.998027
-0.995562
-0.992115
-0.987688
-0.982287
-0.975917
-0.968583
-0.960294
-0.951057
-0.940881
-0.929776
-0.917755
-0.904827
-0.891007
-0.876307
-0.860742
-0.844328
-0.827081
-0.809017
-0.790155
-0.770513
-0.750111
-0.728969
-0.707107
-0.684547
-0.661312
-0.637424
-0.612907
-0.587785
-0.562083
-0.535827
-0.509041
-0.481754
-0.453990
-0.425779
-0.397148
-0.368125
-0.338738
-0.309017
-0.278991
-0.248690
-0.218143
-0.187381
-0.156434
-0.125333
-0.094108
-0.062791
-0.031411
0.000000
0.031411
0.062791
0.094108
0.125333
0.156434
0.187381
0.218143
0.248690
0.278991
0.309017
0.338738
0.368125
0.397148
0.425779
0.453990
0.481754
0.509041
0.535827
0.562083
0.587785
0.612907
0.637424
0.661312
0.684547
0.707107
0.728969
0.750111
0.770513
0.790155
0.809017
0.827081
0.844328
0.860742
0.876307
0.891007
0.904827
0.917755
0.929776
0.940881
0.951057
0.960294
0.968583
0.975917
0.982287
0.987688
0.992115
0.995562
0.998027
0.999507
1.000000
0.999507
0.998027
0.995562
0.992115
0.987688
0.982287
0.975917
0.968583
0.960294
0.951057
0.940881
0.929776
0.917755
0.904827
0.891007
0.876307
0.860742
0.844328
0.827081
0.809017
0.790155
0.770513
0.750111
0.728969
0.707107
0.684547
0.661312
0.637424
0.612907
0.587785
0.562083
0.535827
0.509041
0.481754
0.453990
0.425779
0.397148
0.368125
0.338738
0.309017
0.278991
0.248690
0.218143
0.187381
0.156434
0.125333
0.094108
0.062791
0.031411
0.000000
-0.031411
-0.062791
-0.094108
-0.125333
-0.156434
-0.187381
-0.218143
-0.248690
-0.278991
-0.309017
-0.338738
-0.368125
-0.397148
-0.425779
-0.453990
-0.481754
-0.509041
-0.535827
-0.562083
-0.587785
-0.612907
-0.637424
-0.661312
-0.684547
-0.707107
-0.728969
-0.750111
-0.770513
-0.790155
-0.809017
-0.827081
-0.844328
-0.860742
-0.876307
-0.891007
-0.904827
-0.917755
-0.929776
-0.940881
-0.951057
-0.960294
-0.968583
-0.975917
-0.982287
-0.987688
-0.992115
-0.995562
-0.998027
-0.999507
-1.000000
-0.999507
-0.998027
-0.995562
-0.992115
-0.987688
-0.982287
-0.975917
-0.968583
-0.960294
-0.951057
-0.940881
-0.929776
-0.917755
-0.904827
-0.891007
-0.876307
-0.860742
-0.844328
-0.827081
-0.809017
-0.790155
-0.770513
-0.750111
-0.728969
-0.707107
-0.684547
-0.661312
-0.637424
-0.612907
-0.587785
-0.562083
-0.535827
-0.509041
-0.481754
-0.453990
-0.425779
-0.397148
-0.368125
-0.338738
-0.309017
-0.278991
-0.248690
-0.218143
-0.187381
-0.156434
-0.125333
-0.094108
-0.062791
-0.031411
0.000000
0.031411
0.062791
0.094108
0.125333
0.156434
0.187381
0.218143
0.248690
0.278991
0.309017
0.338738
0.368125
0.397148
0.425779
0.453990
0.481754
0.509041
0.535827
0.562083
0.587785
0.612907
0.637424
0.661312
0.684547
0.707107
0.728969
0.750111
0.770513
0.790155
0.809017
0.827081
0.844328
0.860742
0.876307
0.891007
0.904827
0.917755
0.929776
0.940881
0.951057
0.960294
0.968583
0.975917
0.982287
0.987688
0.992115
0.995562
0.998027
0.999507
1.000000
0.999507
0.998027
0.995562
0.992115
0.987688
0.982287
0.975917
0.968583
0.960294
0.951057
0.940881
0.929776
0.917755
0.904827
0.891007
0.876307
0.860742
0.844328
0.827081
0.809017
0.790155
0.770513
0.750111
0.728969
0.707107
0.684547
0.661312
0.637424
0.612907
0.587785
0.562083
0.535827
0.509041
0.481754
0.453990
0.425779
0.397148
0.368125
0.338738
0.309017
0.278991
0.248690
0.218143
0.187381
0.156434
0.125333
0.094108
0.062791
0.031411
0.000000
-0.031411
-0.062791
-0.094108
-0.125333
-0.156434
-0.187381
-0.218143
-0.248690
-0.278991
-0.309017
-0.338738
-0.368125
-0.397148
-0.425779
-0.453990
-0.481754
-0.509041
-0.535827
-0.562083
-0.587785
-0.612907
-0.637424
-0.661312
-0.684547
-0.707107
-0.728969
-0.750111
-0.770513
-0.790155
-0.809017
-0.827081
-0.844328
-0.860742
-0.876307
-0.891007
-0.904827
-0.917755
-0.929776
-0.940881
-0.951057
-0.960294
-0.968583
-0.975917
-0.982287
-0.987688
-0.992115
-0.995562
-0.998027
-0.999507
-1.000000
-0.999507
-0.998027
-0.995562
-0.992115
-0.987688
-0.982287
-0.975917
-0.968583
-0.960294
-0.951057
-0.940881
-0.929776
-0.917755
-0.904827
-0.891007
-0.876307
-0.860742
-0.844328
-0.827081
-0.809017
-0.790155
-0.770513
-0.750111
-0.728969
-0.707107
-0.684547
-0.661312
-0.637424
-0.612907
-0.587785
-0.562083
-0.535827
-0.509041
-0.481754
-0.453990
-0.425779
-0.397148
-0.368125
-0.338738
-0.309017
-0.278991
-0.248690
-0.218143
-0.187381
-0.156434
-0.125333
-0.094108
-0.062791
-0.031411
0.000000
0.031411
0.062791
0.094108
0.125333
0.156434
0.187381
0.218143
0.248690
0.278991
0.309017
0.338738
0.368125
0.397148
0.425779
0.453990
0.481754
0.509041
0.535827
0.562083
0.587785
0.612907
0.637424
0.661312
0.684547
0.707107
0.728969
0.750111
0.770513
0.790155
0.809017
0.827081
0.844328
0.860742
0.876307
0.891007
0.904827
0.917755
0.929776
0.940881
0.951057
0.960294
0.968583
0.975917
0.982287
0.987688
0.992115
0.995562
0.998027
0.999507
1.000000
0.999507
0.998027
0.995562
0.992115
0.987688
0.982287
0.975917
0.968583
0.960294
0.951057
0.940881
0.929776
0.917755
0.904827
0.891007
0.876307
0.860742
0.844328
0.827081
0.809017
0.790155
0.770513
0.750111
0.728969
0.707107
0.684547
0.661312
0.637424
0.612907
0.587785
0.562083
0.535827
0.509041
0.481754
0.453990
0.425779
0.397148
0.368125
0.338738
0.309017
0.278991
0.248690
0.218143
0.187381
0.156434
0.125333
0.094108
0.062791
0.031411
0.000000
-0.031411
-0.062791
-0.094108
-0.125333
-0.156434
-0.187381
-0.218143
-0.248690
-0.278991
-0.309017
-0.338738
-0.368125
-0.397148
-0.425779
-0.453990
-0.481754
-0.509041
-0.535827
-0.562083
-0.587785
-0.612907
-0.637424
-0.661312
-0.684547
-0.707107
-0.728969
-0.750111
-0.770513
-0.790155
-0.809017
-0.827081
-0.844328
-0.860742
-0.876307
-0.891007
-0.904827
-0.917755
-0.929776
-0.940881
-0.951057
-0.960294
-0.968583
-0.975917
-0.982287
-0.987688
-0.992115
-0.995562
-0.998027
-0.999507
-1.000000
-0.999507
-0.998027
-0.995562
-0.992115
-0.987688
-0.982287
-0.975917
-0.968583
-0.960294
-0.951057
-0.940881
-0.929776
-0.917755
-0.904827
-0.891007
-0.876307
-0.860742
-0.844328
-0.827081
-0.809017
-0.790155
-0.770513
-0.750111
-0.728969
-0.707107
-0.684547
-0.661312
-0.637424
-0.612907
-0.587785
-0.562083
-0.535827
-0.509041
-0.481754
-0.453990
-0.425779
-0.397148
-0.368125
-0.338738
-0.309017
-0.278991
-0.248690
-0.218143
-0.187381
-0.156434
-0.125333
-0.094108
-0.062791
-0.031411
0.000000
0.031411
0.062791
0.094108
0.125333
0.156434
0.187381
0.218143
0.248690
0.278991
0.309017
0.338738
0.368125
0.397148
0.425779
0.453990
0.481754
0.509041
0.535827
0.562083
0.587785
0.612907
0.637424
0.661312
0.684547
0.707107
0.728969
0.750111
0.770513
0.790155
0.809017
0.827081
0.844328
0.860742
0.876307
0.891007
0.904827
0.917755
0.929776
0.940881
0.951057
0.960294
0.968583
0.975917
0.982287
0.987688
0.992115
0.995562
0.998027
0.999507
1.000000
0.999507
0.998027
0.995562
0.992115
0.987688
0.982287
0.975917
0.968583
0.960294
0.951057
0.940881
0.929776
0.917755
0.904827
0.891007
0.876307
0.860742
0.844328
0.827081
0.809017
0.790155
0.770513
0.750111
0.728969
0.707107
0.684547
0.661312
0.637424
0.612907
0.587785
0.562083
0.535827
0.509041
0.481754
0.453990
0.425779
0.397148
0.368125
0.338738
0.309017
0.278991
0.248690
0.218143
0.187381
0.156434
0.125333
0.094108
0.062791
0.031411
0.000000
-0.031411
-0.062791
-0.094108
-0.125333
-0.156434
-0.187381
-0.218143
-0.248690
-0.278991
-0.309017
-0.338738
-0.368125
-0.397148
-0.425779
-0.453990
-0.481754
-0.509041
-0.535827
-0.562083
-0.587785
-0.612907
-0.637424
-0.661312
-0.684547
-0.707107
-0.728969
-0.750111
-0.770513
-0.790155
-0.809017
-0.827081
-0.844328
-0.860742
-0.876307
-0.891007
-0.904827
-0.917755
-0.929776
-0.940881
-0.951057
-0.960294
-0.968583
-0.975917
-0.982287
-0.987688
-0.992115
-0.995562
-0.998027
-0.999507
-1.000000
-0.999507
-0.998027
-0.995562
-0.992115
-0.987688
-0.982287
-0.975917
-0.968583
-0.960294
-0.951057
-0.940881
-0.929776
-0.917755
-0.904827
-0.891007
-0.876307
-0.860742
-0.844328
-0.827081
-0.809017
-0.790155
-0.770513
-0.750111
-0.728969
-0.707107
-0.684547
-0.661312
-0.637424
-0.612907
-0.587785
-0.562083
-0.535827
-0.509041
-0.481754
-0.453990
-0.425779
-0.397148
-0.368125
-0.338738
-0.309017
-0.278991
-0.248690
-0.218143
-0.187381
-0.156434
-0.125333
-0.094108
-0.062791
-0.031411
